…
``` r
train
```

    ## # A tibble: 614 x 10
    ##    rel.compact surface.area wall.area roof.area height orientation
    ##          <dbl>        <dbl>     <dbl>     <dbl>  <dbl> <fct>      
    ##  1       0.620         808.      368.      220.   3.50 3          
    ##  2       0.690         735.      294.      220.   3.50 3          
    ##  3       0.820         612.      318.      147.   7.00 5          
    ##  4       0.760         662.      416.      122.   7.00 5          
    ##  5       0.620         808.      368.      220.   3.50 4          
    ##  6       0.660         760.      318.      220.   3.50 2          
    ##  7       0.820         612.      318.      147.   7.00 3          
    ##  8       0.820         612.      318.      147.   7.00 3          
    ##  9       0.640         784.      343.      220.   3.50 2          
    ## 10       0.710         710.      270.      220.   3.50 4          
    ## # ... with 604 more rows, and 4 more variables: glazing.area <dbl>,
    ## #   glazing.dist <fct>, heating.load <dbl>, cooling.load <dbl>
…
    ## [1] "Test R^2"

``` r
RSS = sum(test.pred.interact3$resid^2)
TSS = sum((test.pred.interact3$heating.load - mean(test.pred.interact3$heating.load))^2)
print(1 - RSS/TSS)
```

    ## [1] 0.9926262

``` r
train.pred.interact3 %>% arrange(desc(abs(resid.stand)))
```

    ## # A tibble: 614 x 13
    ##    rel.compact surface.area wall.area roof.area height orientation
    ##          <dbl>        <dbl>     <dbl>     <dbl>  <dbl> <fct>      
    ##  1       0.640         784.      343.      220.   3.50 2          
    ##  2       0.640         784.      343.      220.   3.50 5          
    ##  3       0.640         784.      343.      220.   3.50 5          
    ##  4       0.620         808.      368.      220.   3.50 2          
    ##  5       0.640         784.      343.      220.   3.50 3          
    ##  6       0.640         784.      343.      220.   3.50 3          
    ##  7       0.640         784.      343.      220.   3.50 5          
    ##  8       0.640         784.      343.      220.   3.50 3          
    ##  9       0.640         784.      343.      220.   3.50 4          
    ## 10       0.640         784.      343.      220.   3.50 2          
    ## # ... with 604 more rows, and 7 more variables: glazing.area <dbl>,
    ## #   glazing.dist <fct>, heating.load <dbl>, cooling.load <dbl>,
    ## #   pred <dbl>, resid.stand <dbl>, resid <dbl>

``` r
train.pred.interact3
```

    ## # A tibble: 614 x 13
    ##    rel.compact surface.area wall.area roof.area height orientation
    ##          <dbl>        <dbl>     <dbl>     <dbl>  <dbl> <fct>      
    ##  1       0.620         808.      368.      220.   3.50 3          
    ##  2       0.690         735.      294.      220.   3.50 3          
    ##  3       0.820         612.      318.      147.   7.00 5          
    ##  4       0.760         662.      416.      122.   7.00 5          
    ##  5       0.620         808.      368.      220.   3.50 4          
    ##  6       0.660         760.      318.      220.   3.50 2          
    ##  7       0.820         612.      318.      147.   7.00 3          
    ##  8       0.820         612.      318.      147.   7.00 3          
    ##  9       0.640         784.      343.      220.   3.50 2          
    ## 10       0.710         710.      270.      220.   3.50 4          
    ## # ... with 604 more rows, and 7 more variables: glazing.area <dbl>,
    ## #   glazing.dist <fct>, heating.load <dbl>, cooling.load <dbl>,
    ## #   pred <dbl>, resid.stand <dbl>, resid <dbl>
…
